0605_adder_uvm_test/wave.vcd
$date
	Sat Jun  6 16:19:35 2026
$end

$version
	Synopsys VCS version W-2024.09-SP2_Full64
$end

$timescale
	1ps
$end

$comment Csum: 1 c90d723fa0b00742 $end


$scope module tb_adder $end

$scope begin unnamed$$_vcs_0 $end
$upscope $end


$scope begin unnamed$$_vcs_1 $end
$upscope $end


$scope module adder_if $end
$var reg 8 ! a [7:0] $end
$var reg 8 " b [7:0] $end
$var reg 9 # y [8:0] $end
$upscope $end


$scope module dut $end
$var reg 8 $ a [7:0] $end
$var reg 8 % b [7:0] $end
$var reg 9 & y [8:0] $end
$upscope $end

$upscope $end

$enddefinitions $end

#0
$dumpvars
b100000101 #
b01000011 "
b11000010 !
b11000010 $
b01000011 %
b100000101 &
$end
#10000
b00011110 !
b00011110 $
b001100001 &
b11111110 "
b11111110 %
b100011100 &
b100011100 #
#20000
b01100011 !
b01100011 $
b101100001 &
b10110010 "
b10110010 %
b100010101 &
b100010101 #
#30000
b10101001 !
b10101001 $
b101011011 &
b01000111 "
b01000111 %
b011110000 &
b011110000 #
#40000
b10101000 !
b10101000 $
b011101111 &
b01101010 "
b01101010 %
b100010010 &
b100010010 #
#50000
b00110111 !
b00110111 $
b010100001 &
b010100001 #
#60000
b11000001 !
b11000001 $
b100101011 &
b01100101 "
b01100101 %
b100100110 &
b100100110 #
#70000
b01001110 !
b01001110 $
b010110011 &
b10010110 "
b10010110 %
b011100100 &
b011100100 #
#80000
b10011000 !
b10011000 $
b100101110 &
b01101000 "
b01101000 %
b100000000 &
b100000000 #
#90000
b01011010 !
b01011010 $
b011000010 &
b11001111 "
b11001111 %
b100101001 &
b100101001 #
#100000
b01010001 !
b01010001 $
b100100000 &
b11110100 "
b11110100 %
b101000101 &
b101000101 #
#110000
b01010110 !
b01010110 $
b101001010 &
b11110111 "
b11110111 %
b101001101 &
b101001101 #
#120000
b01001110 !
b01001110 $
b101000101 &
b01111001 "
b01111001 %
b011000111 &
b011000111 #
#130000
b01001001 !
b01001001 $
b011000010 &
b00110010 "
b00110010 %
b001111011 &
b001111011 #
#140000
b00001101 !
b00001101 $
b000111111 &
b10011010 "
b10011010 %
b010100111 &
b010100111 #
#150000
b00101000 !
b00101000 $
b011000010 &
b11011000 "
b11011000 %
b100000000 &
b100000000 #
#160000
b01111100 !
b01111100 $
b101010100 &
b11110010 "
b11110010 %
b101101110 &
b101101110 #
#170000
b01001000 !
b01001000 $
b100111010 &
b11101011 "
b11101011 %
b100110011 &
b100110011 #
#180000
b00101110 !
b00101110 $
b100011001 &
b10111011 "
b10111011 %
b011101001 &
b011101001 #
#190000
b01011010 !
b01011010 $
b100010101 &
b00001101 "
b00001101 %
b001100111 &
b001100111 #
#200000
b10001110 !
b10001110 $
b010011011 &
b00111101 "
b00111101 %
b011001011 &
b011001011 #
#210000
b11101010 !
b11101010 $
b100100111 &
b01110011 "
b01110011 %
b101011101 &
b101011101 #
#220000
b01110110 !
b01110110 $
b011101001 &
b11001110 "
b11001110 %
b101000100 &
b101000100 #
#230000
b10011100 !
b10011100 $
b101101010 &
b11101100 "
b11101100 %
b110001000 &
b110001000 #
#240000
b11010110 !
b11010110 $
b111000010 &
b01010101 "
b01010101 %
b100101011 &
b100101011 #
#250000
b01101011 !
b01101011 $
b011000000 &
b11000111 "
b11000111 %
b100110010 &
b100110010 #
#260000
b00000101 !
b00000101 $
b011001100 &
b11000100 "
b11000100 %
b011001001 &
b011001001 #
#270000
b10111000 !
b10111000 $
b101111100 &
b00001001 "
b00001001 %
b011000001 &
b011000001 #
#280000
b11101100 !
b11101100 $
b011110101 &
b01100000 "
b01100000 %
b101001100 &
b101001100 #
#290000
b10110111 !
b10110111 $
b100010111 &
b11011101 "
b11011101 %
b110010100 &
b110010100 #
#300000
b10010100 !
b10010100 $
b101110001 &
b00101110 "
b00101110 %
b011000010 &
b011000010 #
#310000
b11010100 !
b11010100 $
b100000010 &
b01010101 "
b01010101 %
b100101001 &
b100101001 #
#320000
b10010100 !
b10010100 $
b011101001 &
b11000101 "
b11000101 %
b101011001 &
b101011001 #
#330000
b00101000 !
b00101000 $
b011101101 &
b10101001 "
b10101001 %
b011010001 &
b011010001 #
#340000
b11110101 !
b11110101 $
b110011110 &
b10100110 "
b10100110 %
b110011011 &
b110011011 #
#350000
b10110000 !
b10110000 $
b101010110 &
b00111001 "
b00111001 %
b011101001 &
b011101001 #
#360000
b10010001 !
b10010001 $
b011001010 &
b10011000 "
b10011000 %
b100101001 &
b100101001 #
#370000
b00110000 !
b00110000 $
b011001000 &
b10000100 "
b10000100 %
b010110100 &
b010110100 #
#380000
b01001000 !
b01001000 $
b011001100 &
b00001000 "
b00001000 %
b001010000 &
b001010000 #
#390000
b11000011 !
b11000011 $
b011001011 &
b10100000 "
b10100000 %
b101100011 &
b101100011 #
#400000
b11011100 !
b11011100 $
b101111100 &
b10111011 "
b10111011 %
b110010111 &
b110010111 #
#410000
b11101011 !
b11101011 $
b110100110 &
b10001101 "
b10001101 %
b101111000 &
b101111000 #
#420000
b11100001 !
b11100001 $
b101101110 &
b01110010 "
b01110010 %
b101010011 &
b101010011 #
#430000
b10000100 !
b10000100 $
b011110110 &
b01000111 "
b01000111 %
b011001011 &
b011001011 #
#440000
b01010001 !
b01010001 $
b010011000 &
b11000011 "
b11000011 %
b100010100 &
b100010100 #
#450000
b00110101 !
b00110101 $
b011111000 &
b11001011 "
b11001011 %
b100000000 &
b100000000 #
#460000
b10010011 !
b10010011 $
b101011110 &
b01100110 "
b01100110 %
b011111001 &
b011111001 #
#470000
b10000100 !
b10000100 $
b011101010 &
b01111111 "
b01111111 %
b100000011 &
b100000011 #
#480000
b10001101 !
b10001101 $
b100001100 &
b10101001 "
b10101001 %
b100110110 &
b100110110 #
#490000
b11011010 !
b11011010 $
b110000011 &
b10110010 "
b10110010 %
b110001100 &
b110001100 #
#500000
b01110110 !
b01110110 $
b100101000 &
b11110100 "
b11110100 %
b101101010 &
b101101010 #
#510000
b11100110 !
b11100110 $
b111011010 &
b10010010 "
b10010010 %
b101111000 &
b101111000 #
#520000
b01101110 !
b01101110 $
b100000000 &
b10101011 "
b10101011 %
b100011001 &
b100011001 #
#530000
b11110100 !
b11110100 $
b110011111 &
b00101110 "
b00101110 %
b100100010 &
b100100010 #
#540000
b00110000 !
b00110000 $
b001011110 &
b01111001 "
b01111001 %
b010101001 &
b010101001 #
#550000
b00000010 !
b00000010 $
b001111011 &
b11100100 "
b11100100 %
b011100110 &
b011100110 #
#560000
b01100010 !
b01100010 $
b101000110 &
b10110111 "
b10110111 %
b100011001 &
b100011001 #
#570000
b00000001 !
b00000001 $
b010111000 &
b01011101 "
b01011101 %
b001011110 &
b001011110 #
#580000
b11001111 !
b11001111 $
b100101100 &
b00100100 "
b00100100 %
b011110011 &
b011110011 #
#590000
b00111100 !
b00111100 $
b001100000 &
b11101111 "
b11101111 %
b100101011 &
b100101011 #
#600000
b01001100 !
b01001100 $
b100111011 &
b01001110 "
b01001110 %
b010011010 &
b010011010 #
#610000
b11011001 !
b11011001 $
b100100111 &
b11010110 "
b11010110 %
b110101111 &
b110101111 #
#620000
b00101010 !
b00101010 $
b100000000 &
b01001001 "
b01001001 %
b001110011 &
b001110011 #
#630000
b01010100 !
b01010100 $
b010011101 &
b11110111 "
b11110111 %
b101001011 &
b101001011 #
#640000
b11110111 !
b11110111 $
b111101110 &
b11000101 "
b11000101 %
b110111100 &
b110111100 #
#650000
b11000111 !
b11000111 $
b110001100 &
b10110000 "
b10110000 %
b101110111 &
b101110111 #
#660000
b01011001 !
b01011001 $
b100001001 &
b01001100 "
b01001100 %
b010100101 &
b010100101 #
#670000
b10110110 !
b10110110 $
b100000010 &
b00111010 "
b00111010 %
b011110000 &
b011110000 #
#680000
b10010000 !
b10010000 $
b011001010 &
b00110101 "
b00110101 %
b011000101 &
b011000101 #
#690000
b01000010 !
b01000010 $
b001110111 &
b10010000 "
b10010000 %
b011010010 &
b011010010 #
#700000
b10010111 !
b10010111 $
b100100111 &
b11101101 "
b11101101 %
b110000100 &
b110000100 #
#710000
b01100011 !
b01100011 $
b101010000 &
b00000100 "
b00000100 %
b001100111 &
b001100111 #
#720000
b01001000 !
b01001000 $
b001001100 &
b00111110 "
b00111110 %
b010000110 &
b010000110 #
#730000
b00101000 !
b00101000 $
b001100110 &
b10010110 "
b10010110 %
b010111110 &
b010111110 #
#740000
b00010001 !
b00010001 $
b010100111 &
b01100101 "
b01100101 %
b001110110 &
b001110110 #
#750000
b01100010 !
b01100010 $
b011000111 &
b00110010 "
b00110010 %
b010010100 &
b010010100 #
#760000
b10001101 !
b10001101 $
b010111111 &
b00110000 "
b00110000 %
b010111101 &
b010111101 #
#770000
b01100010 !
b01100010 $
b010010010 &
b00011001 "
b00011001 %
b001111011 &
b001111011 #
#780000
b00100000 !
b00100000 $
b000111001 &
b11100010 "
b11100010 %
b100000010 &
b100000010 #
#790000
b11000000 !
b11000000 $
b110100010 &
b00110010 "
b00110010 %
b011110010 &
b011110010 #
#800000
b00000101 !
b00000101 $
b000110111 &
b10010101 "
b10010101 %
b010011010 &
b010011010 #
#810000
b00111110 !
b00111110 $
b011010011 &
b10101001 "
b10101001 %
b011100111 &
b011100111 #
#820000
b01111101 !
b01111101 $
b100100110 &
b00010010 "
b00010010 %
b010001111 &
b010001111 #
#830000
b01001000 !
b01001000 $
b001011010 &
b11001110 "
b11001110 %
b100010110 &
b100010110 #
#840000
b10110111 !
b10110111 $
b110000101 &
b11000100 "
b11000100 %
b101111011 &
b101111011 #
#850000
b10101001 !
b10101001 $
b101101101 &
b01111000 "
b01111000 %
b100100001 &
b100100001 #
#860000
b01110101 !
b01110101 $
b011101101 &
b10100001 "
b10100001 %
b100010110 &
b100010110 #
#870000
b10110100 !
b10110100 $
b101010101 &
b11111001 "
b11111001 %
b110101101 &
b110101101 #
#880000
b10100100 !
b10100100 $
b110011101 &
b00011100 "
b00011100 %
b011000000 &
b011000000 #
#890000
b10011010 !
b10011010 $
b010110110 &
b10110011 "
b10110011 %
b101001101 &
b101001101 #
#900000
b01011001 !
b01011001 $
b100001100 &
b00011101 "
b00011101 %
b001110110 &
b001110110 #
#910000
b11010001 !
b11010001 $
b011101110 &
b01101101 "
b01101101 %
b100111110 &
b100111110 #
#920000
b01001010 !
b01001010 $
b010110111 &
b00100111 "
b00100111 %
b001110001 &
b001110001 #
#930000
b10010000 !
b10010000 $
b010110111 &
b10101100 "
b10101100 %
b100111100 &
b100111100 #
#940000
b10001111 !
b10001111 $
b100111011 &
b11100001 "
b11100001 %
b101110000 &
b101110000 #
#950000
b11001000 !
b11001000 $
b110101001 &
b00111100 "
b00111100 %
b100000100 &
b100000100 #
#960000
b01011101 !
b01011101 $
b010011001 &
b11111101 "
b11111101 %
b101011010 &
b101011010 #
#970000
b01110000 !
b01110000 $
b101101101 &
b10011011 "
b10011011 %
b100001011 &
b100001011 #
#980000
b01100010 !
b01100010 $
b011111101 &
b01101111 "
b01101111 %
b011010001 &
b011010001 #
#990000
b10111101 !
b10111101 $
b100101100 &
b10101001 "
b10101001 %
b101100110 &
b101100110 #
