0615_I2C/tb_i2c_uvm.vcd
$date
	Mon Jun 15 16:28:32 2026
$end

$version
	Synopsys VCS version W-2024.09-SP2_Full64
$end

$timescale
	1ps
$end

$comment Csum: 1 eef8c226234e7d52 $end


$scope module tb_i2c_uvm $end

$scope begin unnamed$$_vcs_2 $end
$upscope $end


$scope module i2c_if $end
$var reg 1 ! clk $end
$var reg 1 " reset $end
$var reg 1 # cmd_start $end
$var reg 1 $ cmd_write $end
$var reg 1 % cmd_read $end
$var reg 1 & cmd_stop $end
$var reg 8 ' tx_data [7:0] $end
$var reg 8 ( rx_data [7:0] $end
$var reg 1 ) ack_in $end
$var reg 1 * ack_out $end
$var reg 1 + busy $end
$var reg 1 , done $end
$var reg 1 - master_sda_o $end
$var reg 1 . master_sda_i $end
$var reg 8 / data_out [7:0] $end
$var reg 1 0 data_valid $end
$var wire 1 1 sda $end
$var wire 1 2 scl $end
$upscope $end


$scope module U_I2C_MASTER $end
$var reg 1 3 clk $end
$var reg 1 4 reset $end
$var reg 1 5 cmd_start $end
$var reg 1 6 cmd_write $end
$var reg 1 7 cmd_read $end
$var reg 1 8 cmd_stop $end
$var reg 8 9 tx_data [7:0] $end
$var reg 8 : rx_data [7:0] $end
$var reg 1 ; ack_in $end
$var reg 1 < ack_out $end
$var reg 1 = busy $end
$var reg 1 > done $end
$var reg 1 ? scl $end
$var reg 1 @ sda_o $end
$var reg 1 A sda_i $end
$var reg 3 B state [2:0] $end
$var reg 8 C div_cnt [7:0] $end
$var reg 1 D qtr_tick $end
$var reg 1 E scl_r $end
$var reg 1 F sda_r $end
$var reg 2 G step [1:0] $end
$var reg 8 H tx_shift_reg [7:0] $end
$var reg 8 I rx_shift_reg [7:0] $end
$var reg 3 J bit_cnt [2:0] $end
$var reg 1 K is_read $end
$var reg 1 L ack_in_r $end
$upscope $end


$scope module U_I2C_SALVE $end
$var wire 1 M clk $end
$var wire 1 N reset_n $end
$var reg 8 O data_out [7:0] $end
$var reg 1 P data_valid $end
$var wire 1 1 sda $end
$var reg 1 Q scl $end
$var reg 3 R state [2:0] $end
$var reg 3 S scl_sync [2:0] $end
$var reg 3 T sda_sync [2:0] $end
$var reg 8 U addr_byte [7:0] $end
$var reg 8 V data_byte [7:0] $end
$var reg 3 W bit_cnt [2:0] $end
$var reg 1 X sda_drive_low $end
$var reg 1 Y addr_match $end
$var reg 1 Z write_bit_ok $end
$var reg 1 [ data_ready $end
$var wire 1 \ scl_rise $end
$var wire 1 ] scl_fall $end
$var wire 1 ^ start_condition $end
$var wire 1 _ stop_condition $end
$upscope $end

$upscope $end

$enddefinitions $end

#0
$dumpvars
b00000000 /
bxxxxxxxx (
b00000000 '
1L
x<
0>
0K
0D
1E
1F
b000 J
b00000000 C
bxxxxxxxx :
b00000000 I
b000 B
b00 G
b00000000 9
b00000000 H
0Y
0[
0P
0]
0\
0X
0^
0_
0Z
b00000000 U
b111 W
b00000000 V
b00000000 O
b111 S
b111 T
b000 R
0!
03
1.
1A
1"
14
0=
0+
1?
1@
1-
05
06
07
08
1;
1Q
0M
0N
1)
x*
0%
0#
0&
0$
00
0,
12
11
$end
#5000
1!
13
1M
#10000
0!
03
0M
#15000
1!
13
1M
#20000
0!
03
0M
#25000
1!
13
1M
#30000
0!
03
0M
#35000
1!
13
1M
#40000
0!
03
0M
#45000
1!
13
1M
0"
04
1N
#50000
0!
03
0M
#55000
1!
13
1M
b00000001 C
#60000
0!
03
0M
#65000
1!
13
1M
b00000010 C
#70000
0!
03
0M
#75000
1!
13
1M
b00000011 C
#80000
0!
03
0M
#85000
1!
13
1M
b00000100 C
#90000
0!
03
0M
#95000
1!
13
1M
b00000101 C
#100000
0!
03
0M
#105000
1!
13
1M
1#
15
b00000110 C
#110000
0!
03
0M
#115000
1!
13
1M
0#
05
b00000111 C
b001 B
1=
1+
#120000
0!
03
0M
#125000
1!
13
1M
b00001000 C
#130000
0!
03
0M
#135000
1!
13
1M
b00001001 C
#140000
0!
03
0M
#145000
1!
13
1M
b00001010 C
#150000
0!
03
0M
#155000
1!
13
1M
b00001011 C
#160000
0!
03
0M
#165000
1!
13
1M
b00001100 C
#170000
0!
03
0M
#175000
1!
13
1M
b00001101 C
#180000
0!
03
0M
#185000
1!
13
1M
b00001110 C
#190000
0!
03
0M
#195000
1!
13
1M
b00001111 C
#200000
0!
03
0M
#205000
1!
13
1M
b00010000 C
#210000
0!
03
0M
#215000
1!
13
1M
b00010001 C
#220000
0!
03
0M
#225000
1!
13
1M
b00010010 C
#230000
0!
03
0M
#235000
1!
13
1M
b00010011 C
#240000
0!
03
0M
#245000
1!
13
1M
b00010100 C
#250000
0!
03
0M
#255000
1!
13
1M
b00010101 C
#260000
0!
03
0M
#265000
1!
13
1M
b00010110 C
#270000
0!
03
0M
#275000
1!
13
1M
b00010111 C
#280000
0!
03
0M
#285000
1!
13
1M
b00011000 C
#290000
0!
03
0M
#295000
1!
13
1M
b00011001 C
#300000
0!
03
0M
#305000
1!
13
1M
b00011010 C
#310000
0!
03
0M
#315000
1!
13
1M
b00011011 C
#320000
0!
03
0M
#325000
1!
13
1M
b00011100 C
#330000
0!
03
0M
#335000
1!
13
1M
b00011101 C
#340000
0!
03
0M
#345000
1!
13
1M
b00011110 C
#350000
0!
03
0M
#355000
1!
13
1M
b00011111 C
#360000
0!
03
0M
#365000
1!
13
1M
b00100000 C
#370000
0!
03
0M
#375000
1!
13
1M
b00100001 C
#380000
0!
03
0M
#385000
1!
13
1M
b00100010 C
#390000
0!
03
0M
#395000
1!
13
1M
b00100011 C
#400000
0!
03
0M
#405000
1!
13
1M
b00100100 C
#410000
0!
03
0M
#415000
1!
13
1M
b00100101 C
#420000
0!
03
0M
#425000
1!
13
1M
b00100110 C
#430000
0!
03
0M
#435000
1!
13
1M
b00100111 C
#440000
0!
03
0M
#445000
1!
13
1M
b00101000 C
#450000
0!
03
0M
#455000
1!
13
1M
b00101001 C
#460000
0!
03
0M
#465000
1!
13
1M
b00101010 C
#470000
0!
03
0M
#475000
1!
13
1M
b00101011 C
#480000
0!
03
0M
#485000
1!
13
1M
b00101100 C
#490000
0!
03
0M
#495000
1!
13
1M
b00101101 C
#500000
0!
03
0M
#505000
1!
13
1M
b00101110 C
#510000
0!
03
0M
#515000
1!
13
1M
b00101111 C
#520000
0!
03
0M
#525000
1!
13
1M
b00110000 C
#530000
0!
03
0M
#535000
1!
13
1M
b00110001 C
#540000
0!
03
0M
#545000
1!
13
1M
b00110010 C
#550000
0!
03
0M
#555000
1!
13
1M
b00110011 C
#560000
0!
03
0M
#565000
1!
13
1M
b00110100 C
#570000
0!
03
0M
#575000
1!
13
1M
b00110101 C
#580000
0!
03
0M
#585000
1!
13
1M
b00110110 C
#590000
0!
03
0M
#595000
1!
13
1M
b00110111 C
#600000
0!
03
0M
#605000
1!
13
1M
b00111000 C
#610000
0!
03
0M
#615000
1!
13
1M
b00111001 C
#620000
0!
03
0M
#625000
1!
13
1M
b00111010 C
#630000
0!
03
0M
#635000
1!
13
1M
b00111011 C
#640000
0!
03
0M
#645000
1!
13
1M
b00111100 C
#650000
0!
03
0M
#655000
1!
13
1M
b00111101 C
#660000
0!
03
0M
#665000
1!
13
1M
b00111110 C
#670000
0!
03
0M
#675000
1!
13
1M
b00111111 C
#680000
0!
03
0M
#685000
1!
13
1M
b01000000 C
#690000
0!
03
0M
#695000
1!
13
1M
b01000001 C
#700000
0!
03
0M
#705000
1!
13
1M
b01000010 C
#710000
0!
03
0M
#715000
1!
13
1M
b01000011 C
#720000
0!
03
0M
#725000
1!
13
1M
b01000100 C
#730000
0!
03
0M
#735000
1!
13
1M
b01000101 C
#740000
0!
03
0M
#745000
1!
13
1M
b01000110 C
#750000
0!
03
0M
#755000
1!
13
1M
b01000111 C
#760000
0!
03
0M
#765000
1!
13
1M
b01001000 C
#770000
0!
03
0M
#775000
1!
13
1M
b01001001 C
#780000
0!
03
0M
#785000
1!
13
1M
b01001010 C
#790000
0!
03
0M
#795000
1!
13
1M
b01001011 C
#800000
0!
03
0M
#805000
1!
13
1M
b01001100 C
#810000
0!
03
0M
#815000
1!
13
1M
b01001101 C
#820000
0!
03
0M
#825000
1!
13
1M
b01001110 C
#830000
0!
03
0M
#835000
1!
13
1M
b01001111 C
#840000
0!
03
0M
#845000
1!
13
1M
b01010000 C
#850000
0!
03
0M
#855000
1!
13
1M
b01010001 C
#860000
0!
03
0M
#865000
1!
13
1M
b01010010 C
#870000
0!
03
0M
#875000
1!
13
1M
b01010011 C
#880000
0!
03
0M
#885000
1!
13
1M
b01010100 C
#890000
0!
03
0M
#895000
1!
13
1M
b01010101 C
#900000
0!
03
0M
#905000
1!
13
1M
b01010110 C
#910000
0!
03
0M
#915000
1!
13
1M
b01010111 C
#920000
0!
03
0M
#925000
1!
13
1M
b01011000 C
#930000
0!
03
0M
#935000
1!
13
1M
b01011001 C
#940000
0!
03
0M
#945000
1!
13
1M
b01011010 C
#950000
0!
03
0M
#955000
1!
13
1M
b01011011 C
#960000
0!
03
0M
#965000
1!
13
1M
b01011100 C
#970000
0!
03
0M
#975000
1!
13
1M
b01011101 C
#980000
0!
03
0M
#985000
1!
13
1M
b01011110 C
#990000
0!
03
0M
#995000
1!
13
1M
b01011111 C
#1000000
0!
03
0M
#1005000
1!
13
1M
b01100000 C
#1010000
0!
03
0M
#1015000
1!
13
1M
b01100001 C
#1020000
0!
03
0M
#1025000
1!
13
1M
b01100010 C
#1030000
0!
03
0M
#1035000
1!
13
1M
b01100011 C
#1040000
0!
03
0M
#1045000
1!
13
1M
b01100100 C
#1050000
0!
03
0M
#1055000
1!
13
1M
b01100101 C
#1060000
0!
03
0M
#1065000
1!
13
1M
b01100110 C
#1070000
0!
03
0M
#1075000
1!
13
1M
b01100111 C
#1080000
0!
03
0M
#1085000
1!
13
1M
b01101000 C
#1090000
0!
03
0M
#1095000
1!
13
1M
b01101001 C
#1100000
0!
03
0M
#1105000
1!
13
1M
b01101010 C
#1110000
0!
03
0M
#1115000
1!
13
1M
b01101011 C
#1120000
0!
03
0M
#1125000
1!
13
1M
b01101100 C
#1130000
0!
03
0M
#1135000
1!
13
1M
b01101101 C
#1140000
0!
03
0M
#1145000
1!
13
1M
b01101110 C
#1150000
0!
03
0M
#1155000
1!
13
1M
b01101111 C
#1160000
0!
03
0M
#1165000
1!
13
1M
b01110000 C
#1170000
0!
03
0M
#1175000
1!
13
1M
b01110001 C
#1180000
0!
03
0M
#1185000
1!
13
1M
b01110010 C
#1190000
0!
03
0M
#1195000
1!
13
1M
b01110011 C
#1200000
0!
03
0M
#1205000
1!
13
1M
b01110100 C
#1210000
0!
03
0M
#1215000
1!
13
1M
b01110101 C
#1220000
0!
03
0M
#1225000
1!
13
1M
b01110110 C
#1230000
0!
03
0M
#1235000
1!
13
1M
b01110111 C
#1240000
0!
03
0M
#1245000
1!
13
1M
b01111000 C
#1250000
0!
03
0M
#1255000
1!
13
1M
b01111001 C
#1260000
0!
03
0M
#1265000
1!
13
1M
b01111010 C
#1270000
0!
03
0M
#1275000
1!
13
1M
b01111011 C
#1280000
0!
03
0M
#1285000
1!
13
1M
b01111100 C
#1290000
0!
03
0M
#1295000
1!
13
1M
b01111101 C
#1300000
0!
03
0M
#1305000
1!
13
1M
b01111110 C
#1310000
0!
03
0M
#1315000
1!
13
1M
b01111111 C
#1320000
0!
03
0M
#1325000
1!
13
1M
b10000000 C
#1330000
0!
03
0M
#1335000
1!
13
1M
b10000001 C
#1340000
0!
03
0M
#1345000
1!
13
1M
b10000010 C
#1350000
0!
03
0M
#1355000
1!
13
1M
b10000011 C
#1360000
0!
03
0M
#1365000
1!
13
1M
b10000100 C
#1370000
0!
03
0M
#1375000
1!
13
1M
b10000101 C
#1380000
0!
03
0M
#1385000
1!
13
1M
b10000110 C
#1390000
0!
03
0M
#1395000
1!
13
1M
b10000111 C
#1400000
0!
03
0M
#1405000
1!
13
1M
b10001000 C
#1410000
0!
03
0M
#1415000
1!
13
1M
b10001001 C
#1420000
0!
03
0M
#1425000
1!
13
1M
b10001010 C
#1430000
0!
03
0M
#1435000
1!
13
1M
b10001011 C
#1440000
0!
03
0M
#1445000
1!
13
1M
b10001100 C
#1450000
0!
03
0M
#1455000
1!
13
1M
b10001101 C
#1460000
0!
03
0M
#1465000
1!
13
1M
b10001110 C
#1470000
0!
03
0M
#1475000
1!
13
1M
b10001111 C
#1480000
0!
03
0M
#1485000
1!
13
1M
b10010000 C
#1490000
0!
03
0M
#1495000
1!
13
1M
b10010001 C
#1500000
0!
03
0M
#1505000
1!
13
1M
b10010010 C
#1510000
0!
03
0M
#1515000
1!
13
1M
b10010011 C
#1520000
0!
03
0M
#1525000
1!
13
1M
b10010100 C
#1530000
0!
03
0M
#1535000
1!
13
1M
b10010101 C
#1540000
0!
03
0M
#1545000
1!
13
1M
b10010110 C
#1550000
0!
03
0M
#1555000
1!
13
1M
b10010111 C
#1560000
0!
03
0M
#1565000
1!
13
1M
b10011000 C
#1570000
0!
03
0M
#1575000
1!
13
1M
b10011001 C
#1580000
0!
03
0M
#1585000
1!
13
1M
b10011010 C
#1590000
0!
03
0M
#1595000
1!
13
1M
b10011011 C
#1600000
0!
03
0M
#1605000
1!
13
1M
b10011100 C
#1610000
0!
03
0M
#1615000
1!
13
1M
b10011101 C
#1620000
0!
03
0M
#1625000
1!
13
1M
b10011110 C
#1630000
0!
03
0M
#1635000
1!
13
1M
b10011111 C
#1640000
0!
03
0M
#1645000
1!
13
1M
b10100000 C
#1650000
0!
03
0M
#1655000
1!
13
1M
b10100001 C
#1660000
0!
03
0M
#1665000
1!
13
1M
b10100010 C
#1670000
0!
03
0M
#1675000
1!
13
1M
b10100011 C
#1680000
0!
03
0M
#1685000
1!
13
1M
b10100100 C
#1690000
0!
03
0M
#1695000
1!
13
1M
b10100101 C
#1700000
0!
03
0M
#1705000
1!
13
1M
b10100110 C
#1710000
0!
03
0M
#1715000
1!
13
1M
b10100111 C
#1720000
0!
03
0M
#1725000
1!
13
1M
b10101000 C
#1730000
0!
03
0M
#1735000
1!
13
1M
b10101001 C
#1740000
0!
03
0M
#1745000
1!
13
1M
b10101010 C
#1750000
0!
03
0M
#1755000
1!
13
1M
b10101011 C
#1760000
0!
03
0M
#1765000
1!
13
1M
b10101100 C
#1770000
0!
03
0M
#1775000
1!
13
1M
b10101101 C
#1780000
0!
03
0M
#1785000
1!
13
1M
b10101110 C
#1790000
0!
03
0M
#1795000
1!
13
1M
b10101111 C
#1800000
0!
03
0M
#1805000
1!
13
1M
b10110000 C
#1810000
0!
03
0M
#1815000
1!
13
1M
b10110001 C
#1820000
0!
03
0M
#1825000
1!
13
1M
b10110010 C
#1830000
0!
03
0M
#1835000
1!
13
1M
b10110011 C
#1840000
0!
03
0M
#1845000
1!
13
1M
b10110100 C
#1850000
0!
03
0M
#1855000
1!
13
1M
b10110101 C
#1860000
0!
03
0M
#1865000
1!
13
1M
b10110110 C
#1870000
0!
03
0M
#1875000
1!
13
1M
b10110111 C
#1880000
0!
03
0M
#1885000
1!
13
1M
b10111000 C
#1890000
0!
03
0M
#1895000
1!
13
1M
b10111001 C
#1900000
0!
03
0M
#1905000
1!
13
1M
b10111010 C
#1910000
0!
03
0M
#1915000
1!
13
1M
b10111011 C
#1920000
0!
03
0M
#1925000
1!
13
1M
b10111100 C
#1930000
0!
03
0M
#1935000
1!
13
1M
b10111101 C
#1940000
0!
03
0M
#1945000
1!
13
1M
b10111110 C
#1950000
0!
03
0M
#1955000
1!
13
1M
b10111111 C
#1960000
0!
03
0M
#1965000
1!
13
1M
b11000000 C
#1970000
0!
03
0M
#1975000
1!
13
1M
b11000001 C
#1980000
0!
03
0M
#1985000
1!
13
1M
b11000010 C
#1990000
0!
03
0M
#1995000
1!
13
1M
b11000011 C
#2000000
0!
03
0M
#2005000
1!
13
1M
b11000100 C
#2010000
0!
03
0M
#2015000
1!
13
1M
b11000101 C
#2020000
0!
03
0M
#2025000
1!
13
1M
b11000110 C
#2030000
0!
03
0M
#2035000
1!
13
1M
b11000111 C
#2040000
0!
03
0M
#2045000
1!
13
1M
b11001000 C
#2050000
0!
03
0M
#2055000
1!
13
1M
b11001001 C
#2060000
0!
03
0M
#2065000
1!
13
1M
b11001010 C
#2070000
0!
03
0M
#2075000
1!
13
1M
b11001011 C
#2080000
0!
03
0M
#2085000
1!
13
1M
b11001100 C
#2090000
0!
03
0M
#2095000
1!
13
1M
b11001101 C
#2100000
0!
03
0M
#2105000
1!
13
1M
b11001110 C
#2110000
0!
03
0M
#2115000
1!
13
1M
b11001111 C
#2120000
0!
03
0M
#2125000
1!
13
1M
b11010000 C
#2130000
0!
03
0M
#2135000
1!
13
1M
b11010001 C
#2140000
0!
03
0M
#2145000
1!
13
1M
b11010010 C
#2150000
0!
03
0M
#2155000
1!
13
1M
b11010011 C
#2160000
0!
03
0M
#2165000
1!
13
1M
b11010100 C
#2170000
0!
03
0M
#2175000
1!
13
1M
b11010101 C
#2180000
0!
03
0M
#2185000
1!
13
1M
b11010110 C
#2190000
0!
03
0M
#2195000
1!
13
1M
b11010111 C
#2200000
0!
03
0M
#2205000
1!
13
1M
b11011000 C
#2210000
0!
03
0M
#2215000
1!
13
1M
b11011001 C
#2220000
0!
03
0M
#2225000
1!
13
1M
b11011010 C
#2230000
0!
03
0M
#2235000
1!
13
1M
b11011011 C
#2240000
0!
03
0M
#2245000
1!
13
1M
b11011100 C
#2250000
0!
03
0M
#2255000
1!
13
1M
b11011101 C
#2260000
0!
03
0M
#2265000
1!
13
1M
b11011110 C
#2270000
0!
03
0M
#2275000
1!
13
1M
b11011111 C
#2280000
0!
03
0M
#2285000
1!
13
1M
b11100000 C
#2290000
0!
03
0M
#2295000
1!
13
1M
b11100001 C
#2300000
0!
03
0M
#2305000
1!
13
1M
b11100010 C
#2310000
0!
03
0M
#2315000
1!
13
1M
b11100011 C
#2320000
0!
03
0M
#2325000
1!
13
1M
b11100100 C
#2330000
0!
03
0M
#2335000
1!
13
1M
b11100101 C
#2340000
0!
03
0M
#2345000
1!
13
1M
b11100110 C
#2350000
0!
03
0M
#2355000
1!
13
1M
b11100111 C
#2360000
0!
03
0M
#2365000
1!
13
1M
b11101000 C
#2370000
0!
03
0M
#2375000
1!
13
1M
b11101001 C
#2380000
0!
03
0M
#2385000
1!
13
1M
b11101010 C
#2390000
0!
03
0M
#2395000
1!
13
1M
b11101011 C
#2400000
0!
03
0M
#2405000
1!
13
1M
b11101100 C
#2410000
0!
03
0M
#2415000
1!
13
1M
b11101101 C
#2420000
0!
03
0M
#2425000
1!
13
1M
b11101110 C
#2430000
0!
03
0M
#2435000
1!
13
1M
b11101111 C
#2440000
0!
03
0M
#2445000
1!
13
1M
b11110000 C
#2450000
0!
03
0M
#2455000
1!
13
1M
b11110001 C
#2460000
0!
03
0M
#2465000
1!
13
1M
b11110010 C
#2470000
0!
03
0M
#2475000
1!
13
1M
b11110011 C
#2480000
0!
03
0M
#2485000
1!
13
1M
b11110100 C
#2490000
0!
03
0M
#2495000
1!
13
1M
b11110101 C
#2500000
0!
03
0M
#2505000
1!
13
1M
b11110110 C
#2510000
0!
03
0M
#2515000
1!
13
1M
b11110111 C
#2520000
0!
03
0M
#2525000
1!
13
1M
b11111000 C
#2530000
0!
03
0M
#2535000
1!
13
1M
b11111001 C
#2540000
0!
03
0M
#2545000
1!
13
1M
b00000000 C
1D
#2550000
0!
03
0M
#2555000
1!
13
1M
b00000001 C
0D
b01 G
#2560000
0!
03
0M
#2565000
1!
13
1M
b00000010 C
#2570000
0!
03
0M
#2575000
1!
13
1M
b00000011 C
#2580000
0!
03
0M
#2585000
1!
13
1M
b00000100 C
#2590000
0!
03
0M
#2595000
1!
13
1M
b00000101 C
#2600000
0!
03
0M
#2605000
1!
13
1M
b00000110 C
#2610000
0!
03
0M
#2615000
1!
13
1M
b00000111 C
#2620000
0!
03
0M
#2625000
1!
13
1M
b00001000 C
#2630000
0!
03
0M
#2635000
1!
13
1M
b00001001 C
#2640000
0!
03
0M
#2645000
1!
13
1M
b00001010 C
#2650000
0!
03
0M
#2655000
1!
13
1M
b00001011 C
#2660000
0!
03
0M
#2665000
1!
13
1M
b00001100 C
#2670000
0!
03
0M
#2675000
1!
13
1M
b00001101 C
#2680000
0!
03
0M
#2685000
1!
13
1M
b00001110 C
#2690000
0!
03
0M
#2695000
1!
13
1M
b00001111 C
#2700000
0!
03
0M
#2705000
1!
13
1M
b00010000 C
#2710000
0!
03
0M
#2715000
1!
13
1M
b00010001 C
#2720000
0!
03
0M
#2725000
1!
13
1M
b00010010 C
#2730000
0!
03
0M
#2735000
1!
13
1M
b00010011 C
#2740000
0!
03
0M
#2745000
1!
13
1M
b00010100 C
#2750000
0!
03
0M
#2755000
1!
13
1M
b00010101 C
#2760000
0!
03
0M
#2765000
1!
13
1M
b00010110 C
#2770000
0!
03
0M
#2775000
1!
13
1M
b00010111 C
#2780000
0!
03
0M
#2785000
1!
13
1M
b00011000 C
#2790000
0!
03
0M
#2795000
1!
13
1M
b00011001 C
#2800000
0!
03
0M
#2805000
1!
13
1M
b00011010 C
#2810000
0!
03
0M
#2815000
1!
13
1M
b00011011 C
#2820000
0!
03
0M
#2825000
1!
13
1M
b00011100 C
#2830000
0!
03
0M
#2835000
1!
13
1M
b00011101 C
#2840000
0!
03
0M
#2845000
1!
13
1M
b00011110 C
#2850000
0!
03
0M
#2855000
1!
13
1M
b00011111 C
#2860000
0!
03
0M
#2865000
1!
13
1M
b00100000 C
#2870000
0!
03
0M
#2875000
1!
13
1M
b00100001 C
#2880000
0!
03
0M
#2885000
1!
13
1M
b00100010 C
#2890000
0!
03
0M
#2895000
1!
13
1M
b00100011 C
#2900000
0!
03
0M
#2905000
1!
13
1M
b00100100 C
#2910000
0!
03
0M
#2915000
1!
13
1M
b00100101 C
#2920000
0!
03
0M
#2925000
1!
13
1M
b00100110 C
#2930000
0!
03
0M
#2935000
1!
13
1M
b00100111 C
#2940000
0!
03
0M
#2945000
1!
13
1M
b00101000 C
#2950000
0!
03
0M
#2955000
1!
13
1M
b00101001 C
#2960000
0!
03
0M
#2965000
1!
13
1M
b00101010 C
#2970000
0!
03
0M
#2975000
1!
13
1M
b00101011 C
#2980000
0!
03
0M
#2985000
1!
13
1M
b00101100 C
#2990000
0!
03
0M
#2995000
1!
13
1M
b00101101 C
#3000000
0!
03
0M
#3005000
1!
13
1M
b00101110 C
#3010000
0!
03
0M
#3015000
1!
13
1M
b00101111 C
#3020000
0!
03
0M
#3025000
1!
13
1M
b00110000 C
#3030000
0!
03
0M
#3035000
1!
13
1M
b00110001 C
#3040000
0!
03
0M
#3045000
1!
13
1M
b00110010 C
#3050000
0!
03
0M
#3055000
1!
13
1M
b00110011 C
#3060000
0!
03
0M
#3065000
1!
13
1M
b00110100 C
#3070000
0!
03
0M
#3075000
1!
13
1M
b00110101 C
#3080000
0!
03
0M
#3085000
1!
13
1M
b00110110 C
#3090000
0!
03
0M
#3095000
1!
13
1M
b00110111 C
#3100000
0!
03
0M
#3105000
1!
13
1M
b00111000 C
#3110000
0!
03
0M
#3115000
1!
13
1M
b00111001 C
#3120000
0!
03
0M
#3125000
1!
13
1M
b00111010 C
#3130000
0!
03
0M
#3135000
1!
13
1M
b00111011 C
#3140000
0!
03
0M
#3145000
1!
13
1M
b00111100 C
#3150000
0!
03
0M
#3155000
1!
13
1M
b00111101 C
#3160000
0!
03
0M
#3165000
1!
13
1M
b00111110 C
#3170000
0!
03
0M
#3175000
1!
13
1M
b00111111 C
#3180000
0!
03
0M
#3185000
1!
13
1M
b01000000 C
#3190000
0!
03
0M
#3195000
1!
13
1M
b01000001 C
#3200000
0!
03
0M
#3205000
1!
13
1M
b01000010 C
#3210000
0!
03
0M
#3215000
1!
13
1M
b01000011 C
#3220000
0!
03
0M
#3225000
1!
13
1M
b01000100 C
#3230000
0!
03
0M
#3235000
1!
13
1M
b01000101 C
#3240000
0!
03
0M
#3245000
1!
13
1M
b01000110 C
#3250000
0!
03
0M
#3255000
1!
13
1M
b01000111 C
#3260000
0!
03
0M
#3265000
1!
13
1M
b01001000 C
#3270000
0!
03
0M
#3275000
1!
13
1M
b01001001 C
#3280000
0!
03
0M
#3285000
1!
13
1M
b01001010 C
#3290000
0!
03
0M
#3295000
1!
13
1M
b01001011 C
#3300000
0!
03
0M
#3305000
1!
13
1M
b01001100 C
#3310000
0!
03
0M
#3315000
1!
13
1M
b01001101 C
#3320000
0!
03
0M
#3325000
1!
13
1M
b01001110 C
#3330000
0!
03
0M
#3335000
1!
13
1M
b01001111 C
#3340000
0!
03
0M
#3345000
1!
13
1M
b01010000 C
#3350000
0!
03
0M
#3355000
1!
13
1M
b01010001 C
#3360000
0!
03
0M
#3365000
1!
13
1M
b01010010 C
#3370000
0!
03
0M
#3375000
1!
13
1M
b01010011 C
#3380000
0!
03
0M
#3385000
1!
13
1M
b01010100 C
#3390000
0!
03
0M
#3395000
1!
13
1M
b01010101 C
#3400000
0!
03
0M
#3405000
1!
13
1M
b01010110 C
#3410000
0!
03
0M
#3415000
1!
13
1M
b01010111 C
#3420000
0!
03
0M
#3425000
1!
13
1M
b01011000 C
#3430000
0!
03
0M
#3435000
1!
13
1M
b01011001 C
#3440000
0!
03
0M
#3445000
1!
13
1M
b01011010 C
#3450000
0!
03
0M
#3455000
1!
13
1M
b01011011 C
#3460000
0!
03
0M
#3465000
1!
13
1M
b01011100 C
#3470000
0!
03
0M
#3475000
1!
13
1M
b01011101 C
#3480000
0!
03
0M
#3485000
1!
13
1M
b01011110 C
#3490000
0!
03
0M
#3495000
1!
13
1M
b01011111 C
#3500000
0!
03
0M
#3505000
1!
13
1M
b01100000 C
#3510000
0!
03
0M
#3515000
1!
13
1M
b01100001 C
#3520000
0!
03
0M
#3525000
1!
13
1M
b01100010 C
#3530000
0!
03
0M
#3535000
1!
13
1M
b01100011 C
#3540000
0!
03
0M
#3545000
1!
13
1M
b01100100 C
#3550000
0!
03
0M
#3555000
1!
13
1M
b01100101 C
#3560000
0!
03
0M
#3565000
1!
13
1M
b01100110 C
#3570000
0!
03
0M
#3575000
1!
13
1M
b01100111 C
#3580000
0!
03
0M
#3585000
1!
13
1M
b01101000 C
#3590000
0!
03
0M
#3595000
1!
13
1M
b01101001 C
#3600000
0!
03
0M
#3605000
1!
13
1M
b01101010 C
#3610000
0!
03
0M
#3615000
1!
13
1M
b01101011 C
#3620000
0!
03
0M
#3625000
1!
13
1M
b01101100 C
#3630000
0!
03
0M
#3635000
1!
13
1M
b01101101 C
#3640000
0!
03
0M
#3645000
1!
13
1M
b01101110 C
#3650000
0!
03
0M
#3655000
1!
13
1M
b01101111 C
#3660000
0!
03
0M
#3665000
1!
13
1M
b01110000 C
#3670000
0!
03
0M
#3675000
1!
13
1M
b01110001 C
#3680000
0!
03
0M
#3685000
1!
13
1M
b01110010 C
#3690000
0!
03
0M
#3695000
1!
13
1M
b01110011 C
#3700000
0!
03
0M
#3705000
1!
13
1M
b01110100 C
#3710000
0!
03
0M
#3715000
1!
13
1M
b01110101 C
#3720000
0!
03
0M
#3725000
1!
13
1M
b01110110 C
#3730000
0!
03
0M
#3735000
1!
13
1M
b01110111 C
#3740000
0!
03
0M
#3745000
1!
13
1M
b01111000 C
#3750000
0!
03
0M
#3755000
1!
13
1M
b01111001 C
#3760000
0!
03
0M
#3765000
1!
13
1M
b01111010 C
#3770000
0!
03
0M
#3775000
1!
13
1M
b01111011 C
#3780000
0!
03
0M
#3785000
1!
13
1M
b01111100 C
#3790000
0!
03
0M
#3795000
1!
13
1M
b01111101 C
#3800000
0!
03
0M
#3805000
1!
13
1M
b01111110 C
#3810000
0!
03
0M
#3815000
1!
13
1M
b01111111 C
#3820000
0!
03
0M
#3825000
1!
13
1M
b10000000 C
#3830000
0!
03
0M
#3835000
1!
13
1M
b10000001 C
#3840000
0!
03
0M
#3845000
1!
13
1M
b10000010 C
#3850000
0!
03
0M
#3855000
1!
13
1M
b10000011 C
#3860000
0!
03
0M
#3865000
1!
13
1M
b10000100 C
#3870000
0!
03
0M
#3875000
1!
13
1M
b10000101 C
#3880000
0!
03
0M
#3885000
1!
13
1M
b10000110 C
#3890000
0!
03
0M
#3895000
1!
13
1M
b10000111 C
#3900000
0!
03
0M
#3905000
1!
13
1M
b10001000 C
#3910000
0!
03
0M
#3915000
1!
13
1M
b10001001 C
#3920000
0!
03
0M
#3925000
1!
13
1M
b10001010 C
#3930000
0!
03
0M
#3935000
1!
13
1M
b10001011 C
#3940000
0!
03
0M
#3945000
1!
13
1M
b10001100 C
#3950000
0!
03
0M
#3955000
1!
13
1M
b10001101 C
#3960000
0!
03
0M
#3965000
1!
13
1M
b10001110 C
#3970000
0!
03
0M
#3975000
1!
13
1M
b10001111 C
#3980000
0!
03
0M
#3985000
1!
13
1M
b10010000 C
#3990000
0!
03
0M
#3995000
1!
13
1M
b10010001 C
#4000000
0!
03
0M
#4005000
1!
13
1M
b10010010 C
#4010000
0!
03
0M
#4015000
1!
13
1M
b10010011 C
#4020000
0!
03
0M
#4025000
1!
13
1M
b10010100 C
#4030000
0!
03
0M
#4035000
1!
13
1M
b10010101 C
#4040000
0!
03
0M
#4045000
1!
13
1M
b10010110 C
#4050000
0!
03
0M
#4055000
1!
13
1M
b10010111 C
#4060000
0!
03
0M
#4065000
1!
13
1M
b10011000 C
#4070000
0!
03
0M
#4075000
1!
13
1M
b10011001 C
#4080000
0!
03
0M
#4085000
1!
13
1M
b10011010 C
#4090000
0!
03
0M
#4095000
1!
13
1M
b10011011 C
#4100000
0!
03
0M
#4105000
1!
13
1M
b10011100 C
#4110000
0!
03
0M
#4115000
1!
13
1M
b10011101 C
#4120000
0!
03
0M
